// Jest Snapshot v1, https://goo.gl/fbAQLP

exports[`QuantityPicker should render without props 1`] = `
.emotion-3 {
  width: 43%;
  display: -webkit-box;
  display: -webkit-flex;
  display: -ms-flexbox;
  display: flex;
  -webkit-box-pack: justify;
  -webkit-justify-content: space-between;
  -ms-flex-pack: justify;
  justify-content: space-between;
  margin-left: 5px;
  margin-top: 15px;
  margin-bottom: 15px;
  border: 1px solid #CCC;
  border-radius: 3px;
  padding: 3px 5px;
}

.emotion-3 * span {
  font-size: 11px;
}

.emotion-2 {
  display: -webkit-box;
  display: -webkit-flex;
  display: -ms-flexbox;
  display: flex;
}

.emotion-2 > input {
  width: 15px;
  font-weight: bold;
  text-size: 16px;
  text-align: center;
  border: 0;
}

.emotion-2 > input::-webkit-outer-spin-button,
.emotion-2 input::-webkit-inner-spin-button {
  -webkit-appearance: none;
  margin: 0;
}

.emotion-0 {
  position: relative;
  width: 25px;
  height: 25px;
  background-color: #CCC;
  border: none;
  border-radius: 15px;
  cursor: pointer;
}

.emotion-0:before,
.emotion-0:after {
  content: "";
  position: absolute;
  background-color: white;
}

.emotion-0:after {
  top: 50%;
  left: 0;
  width: 60%;
  height: 1px;
  margin-left: 5px;
}

.emotion-1 {
  position: relative;
  width: 25px;
  height: 25px;
  background-color: #CCC;
  border: none;
  border-radius: 15px;
  cursor: pointer;
}

.emotion-1:before,
.emotion-1:after {
  content: "";
  position: absolute;
  background-color: white;
}

.emotion-1::before {
  top: 0;
  left: 50%;
  width: 1px;
  height: 70%;
  margin-left: -1px;
  margin-top: 4px;
}

.emotion-1::after {
  top: 50%;
  left: 0;
  width: 70%;
  height: 1px;
  margin-left: 4px;
}

@media (min-width:420px) {
  .emotion-1::before {
    margin-left: 0;
    margin-top: 3px;
  }

  .emotion-1::after {
    top: 49%;
  }
}

<div
  className="emotion-3"
>
  <div>
    <span>
      quantity:
    </span>
  </div>
  <div
    className="emotion-2"
  >
    <button
      aria-label="decrease quantity"
      className="emotion-0"
      onClick={[Function]}
    />
    <input
      onChange={[Function]}
      onClick={[Function]}
      type="number"
      value={1}
    />
    <button
      aria-label="increase quantity"
      className="emotion-1"
      onClick={[Function]}
    />
  </div>
</div>
`;
