// Jest Snapshot v1, https://goo.gl/fbAQLP

exports[`Stars should render without props 1`] = `
.emotion-0 {
  fill: #CC0000;
}

.emotion-5 {
  display: -webkit-box;
  display: -webkit-flex;
  display: -ms-flexbox;
  display: flex;
  -webkit-align-items: center;
  -webkit-box-align: center;
  -ms-flex-align: center;
  align-items: center;
}

<div
  className="emotion-5"
>
  <span
    onMouseEnter={[Function]}
    onMouseLeave={[Function]}
    style={
      Object {
        "direction": "ltr",
        "display": "inline-block",
      }
    }
  >
    <span
      onClick={[Function]}
      onMouseMove={[Function]}
      onTouchEnd={[Function]}
      onTouchMove={[Function]}
      style={
        Object {
          "cursor": "auto",
          "display": "inline-block",
          "position": "relative",
        }
      }
    >
      <svg
        height="15px"
        id="icon-star-empty"
        viewBox="0 0 1024 1024"
        width="15px"
      >
        <title>
          star-empty
        </title>
        <path
          className="path1"
          d="M1024 397.050l-353.78-51.408-158.22-320.582-158.216 320.582-353.784 51.408 256 249.538-60.432 352.352 316.432-166.358 316.432 166.358-60.434-352.352 256.002-249.538zM512 753.498l-223.462 117.48 42.676-248.83-180.786-176.222 249.84-36.304 111.732-226.396 111.736 226.396 249.836 36.304-180.788 176.222 42.678 248.83-223.462-117.48z"
        />
      </svg>
      <span
        style={
          Object {
            "display": "inline-block",
            "left": 0,
            "overflow": "hidden",
            "position": "absolute",
            "top": 0,
            "width": "0%",
          }
        }
      >
        <svg
          height="15px"
          id="icon-star-full"
          viewBox="0 0 1024 1024"
          width="15px"
        >
          <title>
            star-full
          </title>
          <path
            className="emotion-0"
            d="M1024 397.050l-353.78-51.408-158.22-320.582-158.216 320.582-353.784 51.408 256 249.538-60.432 352.352 316.432-166.358 316.432 166.358-60.434-352.352 256.002-249.538z"
          />
        </svg>
      </span>
    </span>
    <span
      onClick={[Function]}
      onMouseMove={[Function]}
      onTouchEnd={[Function]}
      onTouchMove={[Function]}
      style={
        Object {
          "cursor": "auto",
          "display": "inline-block",
          "position": "relative",
        }
      }
    >
      <svg
        height="15px"
        id="icon-star-empty"
        viewBox="0 0 1024 1024"
        width="15px"
      >
        <title>
          star-empty
        </title>
        <path
          className="path1"
          d="M1024 397.050l-353.78-51.408-158.22-320.582-158.216 320.582-353.784 51.408 256 249.538-60.432 352.352 316.432-166.358 316.432 166.358-60.434-352.352 256.002-249.538zM512 753.498l-223.462 117.48 42.676-248.83-180.786-176.222 249.84-36.304 111.732-226.396 111.736 226.396 249.836 36.304-180.788 176.222 42.678 248.83-223.462-117.48z"
        />
      </svg>
      <span
        style={
          Object {
            "display": "inline-block",
            "left": 0,
            "overflow": "hidden",
            "position": "absolute",
            "top": 0,
            "width": "0%",
          }
        }
      >
        <svg
          height="15px"
          id="icon-star-full"
          viewBox="0 0 1024 1024"
          width="15px"
        >
          <title>
            star-full
          </title>
          <path
            className="emotion-0"
            d="M1024 397.050l-353.78-51.408-158.22-320.582-158.216 320.582-353.784 51.408 256 249.538-60.432 352.352 316.432-166.358 316.432 166.358-60.434-352.352 256.002-249.538z"
          />
        </svg>
      </span>
    </span>
    <span
      onClick={[Function]}
      onMouseMove={[Function]}
      onTouchEnd={[Function]}
      onTouchMove={[Function]}
      style={
        Object {
          "cursor": "auto",
          "display": "inline-block",
          "position": "relative",
        }
      }
    >
      <svg
        height="15px"
        id="icon-star-empty"
        viewBox="0 0 1024 1024"
        width="15px"
      >
        <title>
          star-empty
        </title>
        <path
          className="path1"
          d="M1024 397.050l-353.78-51.408-158.22-320.582-158.216 320.582-353.784 51.408 256 249.538-60.432 352.352 316.432-166.358 316.432 166.358-60.434-352.352 256.002-249.538zM512 753.498l-223.462 117.48 42.676-248.83-180.786-176.222 249.84-36.304 111.732-226.396 111.736 226.396 249.836 36.304-180.788 176.222 42.678 248.83-223.462-117.48z"
        />
      </svg>
      <span
        style={
          Object {
            "display": "inline-block",
            "left": 0,
            "overflow": "hidden",
            "position": "absolute",
            "top": 0,
            "width": "0%",
          }
        }
      >
        <svg
          height="15px"
          id="icon-star-full"
          viewBox="0 0 1024 1024"
          width="15px"
        >
          <title>
            star-full
          </title>
          <path
            className="emotion-0"
            d="M1024 397.050l-353.78-51.408-158.22-320.582-158.216 320.582-353.784 51.408 256 249.538-60.432 352.352 316.432-166.358 316.432 166.358-60.434-352.352 256.002-249.538z"
          />
        </svg>
      </span>
    </span>
    <span
      onClick={[Function]}
      onMouseMove={[Function]}
      onTouchEnd={[Function]}
      onTouchMove={[Function]}
      style={
        Object {
          "cursor": "auto",
          "display": "inline-block",
          "position": "relative",
        }
      }
    >
      <svg
        height="15px"
        id="icon-star-empty"
        viewBox="0 0 1024 1024"
        width="15px"
      >
        <title>
          star-empty
        </title>
        <path
          className="path1"
          d="M1024 397.050l-353.78-51.408-158.22-320.582-158.216 320.582-353.784 51.408 256 249.538-60.432 352.352 316.432-166.358 316.432 166.358-60.434-352.352 256.002-249.538zM512 753.498l-223.462 117.48 42.676-248.83-180.786-176.222 249.84-36.304 111.732-226.396 111.736 226.396 249.836 36.304-180.788 176.222 42.678 248.83-223.462-117.48z"
        />
      </svg>
      <span
        style={
          Object {
            "display": "inline-block",
            "left": 0,
            "overflow": "hidden",
            "position": "absolute",
            "top": 0,
            "width": "0%",
          }
        }
      >
        <svg
          height="15px"
          id="icon-star-full"
          viewBox="0 0 1024 1024"
          width="15px"
        >
          <title>
            star-full
          </title>
          <path
            className="emotion-0"
            d="M1024 397.050l-353.78-51.408-158.22-320.582-158.216 320.582-353.784 51.408 256 249.538-60.432 352.352 316.432-166.358 316.432 166.358-60.434-352.352 256.002-249.538z"
          />
        </svg>
      </span>
    </span>
    <span
      onClick={[Function]}
      onMouseMove={[Function]}
      onTouchEnd={[Function]}
      onTouchMove={[Function]}
      style={
        Object {
          "cursor": "auto",
          "display": "inline-block",
          "position": "relative",
        }
      }
    >
      <svg
        height="15px"
        id="icon-star-empty"
        viewBox="0 0 1024 1024"
        width="15px"
      >
        <title>
          star-empty
        </title>
        <path
          className="path1"
          d="M1024 397.050l-353.78-51.408-158.22-320.582-158.216 320.582-353.784 51.408 256 249.538-60.432 352.352 316.432-166.358 316.432 166.358-60.434-352.352 256.002-249.538zM512 753.498l-223.462 117.48 42.676-248.83-180.786-176.222 249.84-36.304 111.732-226.396 111.736 226.396 249.836 36.304-180.788 176.222 42.678 248.83-223.462-117.48z"
        />
      </svg>
      <span
        style={
          Object {
            "display": "inline-block",
            "left": 0,
            "overflow": "hidden",
            "position": "absolute",
            "top": 0,
            "width": "0%",
          }
        }
      >
        <svg
          height="15px"
          id="icon-star-full"
          viewBox="0 0 1024 1024"
          width="15px"
        >
          <title>
            star-full
          </title>
          <path
            className="emotion-0"
            d="M1024 397.050l-353.78-51.408-158.22-320.582-158.216 320.582-353.784 51.408 256 249.538-60.432 352.352 316.432-166.358 316.432 166.358-60.434-352.352 256.002-249.538z"
          />
        </svg>
      </span>
    </span>
  </span>
  
</div>
`;
