// Jest Snapshot v1, https://goo.gl/fbAQLP

exports[`CarouselItem should render 1`] = `
.emotion-0 {
  width: 75px;
  height: 75px;
  margin: 0 2px;
}

.emotion-1 {
  outline: none;
  cursor: pointer;
}

.emotion-1:focus {
  border: 1px solid #999999;
  border-radius: 3px;
}

<div
  className="emotion-1"
  onClick={[Function]}
  onKeyPress={[Function]}
  role="button"
  tabIndex="0"
>
  <img
    alt="alternative view 1"
    className="emotion-0"
    src=""
  />
</div>
`;
